%YAML 1.1
%TAG !u! tag:unity3d.com,2011:
--- !u!1045 &1
EditorBuildSettings:
  m_ObjectHideFlags: 0
  serializedVersion: 2
  m_Scenes:
  - enabled: 1
    path: Assets/Scenes/Menu.unity
    guid: fe1220adab6ef5e43b8b579ad8457c9a
  - enabled: 1
    path: Assets/Scenes/Game.unity
    guid: 9fc0d4010bbf28b4594072e72b8655ab
  - enabled: 1
    path: Assets/Scenes/level_1.unity
    guid: 9fd94598b6e45934da0c22a3eeeb7b01
  - enabled: 1
    path: Assets/Scenes/level_2.unity
    guid: 262bb3ca67a8c4743998d13b12c92408
  - enabled: 1
    path: Assets/Scenes/level_3.unity
    guid: 27dcedea2d62758438d2f48c79175191
  m_configObjects: {}
